^G:\DOCUMENTS\VISSTUDIO2019PROJECTS\RAYPP\RAYPP\RAYPP\X64\DEBUG\RAYPP.OBJ
/OUT:"G:\DOCUMENTS\VISSTUDIO2019PROJECTS\RAYPP\RAYPP\X64\DEBUG\RAYPP.EXE" /INCREMENTAL /NOLOGO SDL2.LIB SDL2MAIN.LIB KERNEL32.LIB USER32.LIB GDI32.LIB WINSPOOL.LIB COMDLG32.LIB ADVAPI32.LIB SHELL32.LIB OLE32.LIB OLEAUT32.LIB UUID.LIB ODBC32.LIB ODBCCP32.LIB /MANIFEST /MANIFESTUAC:"level='asInvoker' uiAccess='false'" /manifest:embed /DEBUG:FASTLINK /PDB:"G:\DOCUMENTS\VISSTUDIO2019PROJECTS\RAYPP\RAYPP\X64\DEBUG\RAYPP.PDB" /SUBSYSTEM:CONSOLE /TLBID:1 /DYNAMICBASE /NXCOMPAT /IMPLIB:"G:\DOCUMENTS\VISSTUDIO2019PROJECTS\RAYPP\RAYPP\X64\DEBUG\RAYPP.LIB" /MACHINE:X64 X64\DEBUG\RAYPP.OBJ
^G:\DOCUMENTS\VISSTUDIO2019PROJECTS\RAYPP\RAYPP\RAYPP\X64\DEBUG\CAMERA.OBJ|G:\DOCUMENTS\VISSTUDIO2019PROJECTS\RAYPP\RAYPP\RAYPP\X64\DEBUG\INPUT.OBJ|G:\DOCUMENTS\VISSTUDIO2019PROJECTS\RAYPP\RAYPP\RAYPP\X64\DEBUG\PHYSICS.OBJ|G:\DOCUMENTS\VISSTUDIO2019PROJECTS\RAYPP\RAYPP\RAYPP\X64\DEBUG\RAYCASTRENDERER.OBJ|G:\DOCUMENTS\VISSTUDIO2019PROJECTS\RAYPP\RAYPP\RAYPP\X64\DEBUG\RAYPP.OBJ|G:\DOCUMENTS\VISSTUDIO2019PROJECTS\RAYPP\RAYPP\RAYPP\X64\DEBUG\TEXTURE.OBJ|G:\DOCUMENTS\VISSTUDIO2019PROJECTS\RAYPP\RAYPP\RAYPP\X64\DEBUG\TIME.OBJ|G:\DOCUMENTS\VISSTUDIO2019PROJECTS\RAYPP\RAYPP\RAYPP\X64\DEBUG\VECTOR2.OBJ|G:\DOCUMENTS\VISSTUDIO2019PROJECTS\RAYPP\RAYPP\RAYPP\X64\DEBUG\WALL.OBJ
/OUT:"G:\DOCUMENTS\VISSTUDIO2019PROJECTS\RAYPP\RAYPP\X64\DEBUG\RAYPP.EXE" /INCREMENTAL /NOLOGO SDL2.LIB SDL2MAIN.LIB KERNEL32.LIB USER32.LIB GDI32.LIB WINSPOOL.LIB COMDLG32.LIB ADVAPI32.LIB SHELL32.LIB OLE32.LIB OLEAUT32.LIB UUID.LIB ODBC32.LIB ODBCCP32.LIB /MANIFEST /MANIFESTUAC:"level='asInvoker' uiAccess='false'" /manifest:embed /DEBUG:FASTLINK /PDB:"G:\DOCUMENTS\VISSTUDIO2019PROJECTS\RAYPP\RAYPP\X64\DEBUG\RAYPP.PDB" /SUBSYSTEM:CONSOLE /TLBID:1 /DYNAMICBASE /NXCOMPAT /IMPLIB:"G:\DOCUMENTS\VISSTUDIO2019PROJECTS\RAYPP\RAYPP\X64\DEBUG\RAYPP.LIB" /MACHINE:X64 X64\DEBUG\CAMERA.OBJ
X64\DEBUG\INPUT.OBJ
X64\DEBUG\PHYSICS.OBJ
X64\DEBUG\RAYCASTRENDERER.OBJ
X64\DEBUG\RAYPP.OBJ
X64\DEBUG\VECTOR2.OBJ
X64\DEBUG\WALL.OBJ
X64\DEBUG\TEXTURE.OBJ
X64\DEBUG\TIME.OBJ
